<?xml version="1.0" encoding="iso-8859-1"?>
<!-- Generator: Adobe Illustrator 19.0.0, SVG Export Plug-In . SVG Version: 6.00 Build 0)  -->
<svg xmlns="http://www.w3.org/2000/svg" xmlns:xlink="http://www.w3.org/1999/xlink" version="1.1" id="Capa_1" x="0px" y="0px" viewBox="0 0 512 512" style="enable-background:new 0 0 512 512;" xml:space="preserve" width="512px" height="512px">
<g>
	<g>
		<path d="M448,88v-4c0-3.528-2.32-6.648-5.704-7.664l-40-12C401.552,64.12,400.784,64,400,64h-16.168l-296,6    c-1.92,0.04-3.608,0.84-4.968,2H72c-13.232,0-24,10.768-24,24s10.768,24,24,24h10.872c1.36,1.16,3.048,1.96,4.968,2l191.992,3.888    c0,0,0,0,0.008,0l32,0.648c0.016,0,0.032,0,0.048,0L384,128h16c0.784,0,1.552-0.12,2.296-0.336l40-12    C445.68,114.648,448,111.528,448,108v-4h32V88H448z M80,104h-8c-4.416,0-8-3.584-8-8s3.584-8,8-8h8V104z M272,109.72l-176-3.568    v-20.32l176-3.568V109.72z M304,110.376l-6.48-0.128l-9.52-0.192V81.952l16-0.328V110.376z M432,102.048L398.832,112h-14.664    L320,110.704v-29.4L384,80h14.832L432,89.952V102.048z" fill="#88d6d6"/>
	</g>
</g>
<g>
	<g>
		<rect x="336" y="88" width="64" height="16" fill="#88d6d6"/>
	</g>
</g>
<g>
	<g>
		<path d="M504,144H104H8c-4.424,0-8,3.576-8,8v288c0,4.424,3.576,8,8,8h96h400c4.424,0,8-3.576,8-8V152    C512,147.576,508.424,144,504,144z M96,432H16V160h80V432z M496,432H112V160h384V432z" fill="#88d6d6"/>
	</g>
</g>
<g>
	<g>
		<path d="M56,272c-13.232,0-24,10.768-24,24s10.768,24,24,24s24-10.768,24-24S69.232,272,56,272z M56,304c-4.416,0-8-3.584-8-8    c0-4.416,3.584-8,8-8s8,3.584,8,8C64,300.416,60.416,304,56,304z" fill="#88d6d6"/>
	</g>
</g>
<g>
	<g>
		<rect x="32" y="240" width="48" height="16" fill="#88d6d6"/>
	</g>
</g>
<g>
	<g>
		<rect x="32" y="176" width="48" height="16" fill="#88d6d6"/>
	</g>
</g>
<g>
	<g>
		<rect x="40" y="208" width="32" height="16" fill="#88d6d6"/>
	</g>
</g>
<g>
	<g>
		<rect x="32" y="400" width="48" height="16" fill="#88d6d6"/>
	</g>
</g>
<g>
	<g>
		<rect x="32" y="336" width="48" height="16" fill="#88d6d6"/>
	</g>
</g>
<g>
	<g>
		<rect x="40" y="368" width="32" height="16" fill="#88d6d6"/>
	</g>
</g>
<g>
	<g>
		<path d="M480,168H128c-4.424,0-8,3.576-8,8v240c0,4.424,3.576,8,8,8h352c4.424,0,8-3.576,8-8V176C488,171.576,484.424,168,480,168    z M472,408H136V184h336V408z" fill="#88d6d6"/>
	</g>
</g>
<g>
	<g>
		<rect x="152" y="200" width="16" height="16" fill="#88d6d6"/>
	</g>
</g>
<g>
	<g>
		<rect x="152" y="376" width="16" height="16" fill="#88d6d6"/>
	</g>
</g>
<g>
	<g>
		<rect x="440" y="376" width="16" height="16" fill="#88d6d6"/>
	</g>
</g>
<g>
	<g>
		<rect x="440" y="200" width="16" height="16" fill="#88d6d6"/>
	</g>
</g>
<g>
</g>
<g>
</g>
<g>
</g>
<g>
</g>
<g>
</g>
<g>
</g>
<g>
</g>
<g>
</g>
<g>
</g>
<g>
</g>
<g>
</g>
<g>
</g>
<g>
</g>
<g>
</g>
<g>
</g>
</svg>
